{
  "project_info": {
    "project_number": "136102082477",
    "firebase_url": "https://ionic-todo-app-48c01.firebaseio.com",
    "project_id": "ionic-todo-app-48c01",
    "storage_bucket": "ionic-todo-app-48c01.appspot.com"
  },
  "client": [
    {
      "client_info": {
        "mobilesdk_app_id": "1:136102082477:android:66eeadfc5b0004ec",
        "android_client_info": {
          "package_name": "todoapp.ibouraye.com"
        }
      },
      "oauth_client": [
        {
          "client_id": "136102082477-9rm0bc5j8clqplo2uvj0354vepd4dtdp.apps.googleusercontent.com",
          "client_type": 3
        }
      ],
      "api_key": [
        {
          "current_key": "AIzaSyDS47EhoRwSe3PekzOK5w_MFNNmhJ62e_E"
        }
      ],
      "services": {
        "analytics_service": {
          "status": 1
        },
        "appinvite_service": {
          "status": 1,
          "other_platform_oauth_client": []
        },
        "ads_service": {
          "status": 2
        }
      }
    }
  ],
  "configuration_version": "1"
}